*** Darwin 10x10 ***
Turn = 0.
  0123456789
0 ..h..t.f.h
1 .t.f......
2 f.fr....rh
3 ..f.......
4 hfhr.t...r
5 ..r..t....
6 ..f.r.....
7 ..r.......
8 t..r...r..
9 ......t...

Turn = 2.
  0123456789
0 ....ht.f.r
1 .t.r.....r
2 f.fr.....r
3 ..f......r
4 hf...t....
5 r.h..t....
6 ..rr.t....
7 ..r.......
8 t........r
9 ...r..t...

Turn = 4.
  0123456789
0 ....ht.f.r
1 .tt.....r.
2 f.rr.....r
3 ..f.......
4 hf...t...r
5 .....t....
6 rrh..t....
7 .........r
8 t.rr......
9 .r....t...

Turn = 6.
  0123456789
0 ....tt.f.r
1 .tt...r..r
2 f.t.......
3 ..t.......
4 hf.r.t....
5 .....t...r
6 .....t...r
7 r.........
8 rrh.......
9 r.rr..t...

Turn = 8.
  0123456789
0 ....tt.f.r
1 .tt.r....r
2 f.t.......
3 ..t.......
4 hf...t....
5 .....t...r
6 ...r.t....
7 .r.......r
8 r.h.......
9 rrr..rt...

Turn = 10.
  0123456789
0 ....tt.rr.
1 .tt.t.....
2 f.t.......
3 ..t......r
4 hf...t....
5 .....t....
6 .....t...r
7 r.r...r...
8 .rhr......
9 r.r...r..r

*** Darwin 10x10 ***
Turn = 0.
  0123456789
0 ..t....rh.
1 .........f
2 t.........
3 ..rft.r.f.
4 t..r......
5 .........r
6 ....t...h.
7 frfrt.rh..
8 .ftrf.t...
9 ........t.

Turn = 2.
  0123456789
0 ..t.....rr
1 .........f
2 t.........
3 t..trr..f.
4 tr........
5 .......h..
6 ....t....r
7 rrrrt.....
8 .ft.rrr.h.
9 ...r....t.

Turn = 4.
  0123456789
0 ..t.....rr
1 .........f
2 t....r....
3 t..rr..hf.
4 rr........
5 .rrr......
6 ....t.....
7 ....t.....
8 .trrr...tr
9 r....rr.t.

Turn = 6.
  0123456789
0 ..t..rr..r
1 ...rr..h.r
2 t.........
3 t.rr....f.
4 tt........
5 r.........
6 ....t.....
7 ....r.....
8 rr..r...t.
9 .r.r.r.rrr

Turn = 8.
  0123456789
0 ..ttrrrh.r
1 ..rr.....r
2 t.........
3 t.......f.
4 tt........
5 ..........
6 r...t.....
7 .rr.......
8 ..r.....tr
9 r.rr..rrr.

Turn = 10.
  0123456789
0 ..rrr.rrrr
1 ..r.r.....
2 t....r....
3 t.......f.
4 tt........
5 .r........
6 ....t....r
7 r.rr..r...
8 rr......t.
9 r......r.r

*** Darwin 10x10 ***
Turn = 0.
  0123456789
0 ......h..t
1 f.t..fr...
2 .t...f....
3 .fff.t....
4 .t.hr....h
5 ..........
6 t.......tf
7 ..r....h..
8 t.r.....r.
9 ...r.f...t

Turn = 2.
  0123456789
0 .........t
1 f.t..fh...
2 .t...tt...
3 .fff.t....
4 .t.h..rh..
5 ..........
6 t.r.....tt
7 ....r...rr
8 t.........
9 ....rr...t

Turn = 4.
  0123456789
0 .........t
1 f.t..tt...
2 .t...tt...
3 .tff.t....
4 .trh..r...
5 .......r..
6 t......rrt
7 ......r...
8 t....r...r
9 ....r....t

Turn = 6.
  0123456789
0 .........t
1 f.t..tt...
2 .t...tt...
3 .ttf.t....
4 .tth....r.
5 ......rr..
6 t....r...t
7 .....r..r.
8 t........r
9 ......r.r.

Turn = 8.
  0123456789
0 .........t
1 f.t..tt...
2 .t...tt.r.
3 .ttt.t.r..
4 .ttt......
5 ....r.....
6 t..r.....t
7 .......r.r
8 t.......r.
9 .......r.r

Turn = 10.
  0123456789
0 ........rt
1 f.t..ttr..
2 .t...tt...
3 .ttt.t....
4 .ttt......
5 ...t......
6 tr.......t
7 .......rrr
8 t......r..
9 .........r

*** Darwin 10x10 ***
Turn = 0.
  0123456789
0 .t.t...f..
1 fft.tfr...
2 ....ff....
3 .........r
4 .......rh.
5 .....f....
6 ...tf.r...
7 .h.h..r..r
8 .....h....
9 ...hr...r.

Turn = 2.
  0123456789
0 .t.t...f..
1 ftt.tf....
2 ....ff....
3 ......r...
4 .......r..
5 .....f..rr
6 ...tt...r.
7 h......r..
8 ...h.h....
9 ...h.rr..r

Turn = 4.
  0123456789
0 .t.t...f..
1 ttt.tf....
2 ....tf....
3 ..........
4 ..........
5 .....frr..
6 ...tt..r..
7 h....r..rr
8 ...h...h..
9 ...h.r.r.r

Turn = 6.
  0123456789
0 .t.t...f..
1 ttt.tt....
2 ....tt....
3 ..........
4 ..........
5 .....rr...
6 ...tt.....
7 h...t.rr..
8 ...h...rrr
9 ...hr...rr

Turn = 8.
  0123456789
0 .t.t...f..
1 ttt.tt....
2 ....tt....
3 .....r....
4 ..........
5 ....r.....
6 ...tt.....
7 h...t...rr
8 ...r..r.r.
9 ...rr.rrr.

Turn = 10.
  0123456789
0 .t.t...f..
1 ttt.tt....
2 ....tr....
3 .....r....
4 ..........
5 ..r......r
6 ...tt...r.
7 h...t...r.
8 ....rr.r.r
9 ..rr.r....

*** Darwin 10x10 ***
Turn = 0.
  0123456789
0 ....f....h
1 hf..t....h
2 ......frt.
3 ........ft
4 ....f...f.
5 ....h..t..
6 ...f.f.f..
7 .h.r......
8 ..f.h.t...
9 ..t..h.f.h

Turn = 2.
  0123456789
0 ....f..h.h
1 .f..t...r.
2 ......fr..
3 h.......tt
4 ....f...f.
5 ....h..t..
6 ...f.f.t..
7 .....r...h
8 ..f..ht...
9 .ht..h.f..

Turn = 4.
  0123456789
0 ....th.rrh
1 .f..t.....
2 ......f...
3 ........tt
4 ....f...t.
5 h...h..t.h
6 ...f.f.t..
7 .......r..
8 ..t..tt...
9 .ht..h.f..

Turn = 6.
  0123456789
0 ....tt.rrr
1 .f..t.....
2 ......f...
3 ........tt
4 ....f...th
5 ....h..t..
6 ...f.f.t..
7 h......t..
8 ..t..tt...
9 .tt..h.f..

Turn = 8.
  0123456789
0 ....tt..rr
1 .f..t.....
2 ......fr..
3 ........tt
4 ....f...tt
5 ....h..t..
6 ...f.f.t..
7 .......t..
8 ..t..tt...
9 htt..t.f..

Turn = 10.
  0123456789
0 ....tt.r..
1 .f..t.....
2 ......f..t
3 ........tt
4 ....f..rtt
5 ....h..t..
6 ...f.f.t..
7 .......t..
8 ..t..tt...
9 ttt..t.f..

*** Darwin 10x10 ***
Turn = 0.
  0123456789
0 ....rf....
1 f..r......
2 rh..h.hf.f
3 ...r.r..th
4 h....f..h.
5 .h.......f
6 ..t.......
7 f.....h..h
8 .........h
9 ...rht.r..

Turn = 2.
  0123456789
0 .....r.r..
1 f...hr....
2 h......f.f
3 r.....h.tt
4 r....r.rh.
5 ..hr.....f
6 ..t.......
7 f...h..h..
8 ..........
9 ..rh.t..rr

Turn = 4.
  0123456789
0 ....h..r.r
1 f......r..
2 h......f.t
3 r......rrt
4 r......r..
5 ..t...h..f
6 ..tr.r....
7 f.r..h....
8 ..........
9 rh...t..rr

Turn = 6.
  0123456789
0 ....h...rr
1 f.......rr
2 h......f.t
3 r....r...t
4 ..r.......
5 ..t......f
6 ..t....r..
7 rr.r.rh...
8 r..r....r.
9 h....t...r

Turn = 8.
  0123456789
0 ....h..r.r
1 f.......rr
2 h......f.t
3 ...r.....t
4 ....r.....
5 r.t......f
6 ..t.....r.
7 rr........
8 rr...t.r..
9 h..r.thr..

Turn = 10.
  0123456789
0 ....hr...r
1 f........r
2 h......f.r
3 .r......tt
4 ......r.r.
5 ..t......f
6 r.t.......
7 r.........
8 rr...t..r.
9 hr..ttrr..

*** Darwin 10x10 ***
Turn = 0.
  0123456789
0 .........t
1 ..ft......
2 f.......h.
3 fr.r...f..
4 ...f...hf.
5 ....hrrt.r
6 .r.h......
7 ....r..r.f
8 ..t.......
9 .r.rff.rr.

Turn = 2.
  0123456789
0 .........t
1 .rtt......
2 f........h
3 f...hr.f..
4 ...f.rh.f.
5 ...h...t..
6 .........r
7 ......r..f
8 .rt.r..rr.
9 rr..rf.r..

Turn = 4.
  0123456789
0 .r.......t
1 ..tth.....
2 f......r.h
3 f.....r...
4 ...f.rr.f.
5 ...h...t..
6 ........rr
7 r.........
8 .rrr..rr.r
9 r....rr.r.

Turn = 6.
  0123456789
0 ..t....r.t
1 ..ttt.....
2 f....r...h
3 f.......r.
4 ...fr...r.
5 r..h...tr.
6 ..........
7 .r....r..r
8 .r........
9 r.r..rrrrr

Turn = 8.
  0123456789
0 ..t...r..t
1 ..tttt....
2 f........h
3 r........r
4 r..rr.r...
5 .r.r..rtt.
6 ..........
7 ......r...
8 r....r..rr
9 r...r.r..r

Turn = 10.
  0123456789
0 ..t.t....t
1 ..tttt....
2 r........h
3 rr....r...
4 r.rrr.....
5 ......rttt
6 ....rr..r.
7 ..........
8 .r........
9 r....rrr.r

*** Darwin 10x10 ***
Turn = 0.
  0123456789
0 t.....ff..
1 .tff......
2 f....t.t..
3 f..t......
4 .......fhf
5 .h..r...h.
6 .....f...r
7 ..........
8 h..hf..rh.
9 .fh....f..

Turn = 2.
  0123456789
0 t.....ff..
1 .tff......
2 f....t.th.
3 fh.tr.....
4 .......f.f
5 ......h...
6 ...h.f.rh.
7 ..........
8 h...fr....
9 .fh....f..

Turn = 4.
  0123456789
0 t.....ff..
1 .tttr.....
2 fh...t.tt.
3 f..t......
4 ...h...fhf
5 ....h.....
6 .....rr...
7 ..........
8 h...r.....
9 .fh.r..f..

Turn = 6.
  0123456789
0 t...r.ff..
1 .ttt......
2 fh...t.tt.
3 f..t....h.
4 ...t...f.f
5 ..h.......
6 ....r.....
7 ..........
8 h.r..r....
9 .fhr...f..

Turn = 8.
  0123456789
0 t.r...ff..
1 .ttt......
2 ft...t.tt.
3 f..t....h.
4 ...t...f.f
5 h.........
6 ..r.......
7 ..........
8 rr........
9 .frr.r.f..

Turn = 10.
  0123456789
0 rr....ff..
1 .ttt......
2 tt...t.tt.
3 t..t....t.
4 ...t...f.f
5 h.........
6 r.........
7 r..r......
8 .r........
9 .rrr...f..

*** Darwin 10x10 ***
Turn = 0.
  0123456789
0 ....t...r.
1 .......h.r
2 h..t......
3 h.f....r.r
4 .........f
5 ..th.t..th
6 .....f....
7 fh.f.hrr.r
8 ..f..tf...
9 ........r.

Turn = 2.
  0123456789
0 ....t....r
1 .........r
2 ..ht......
3 h.f..r.h.r
4 .........r
5 .ht..t.rrr
6 ...h.tr.r.
7 f..fh.....
8 ..f..tf...
9 ......r...

Turn = 4.
  0123456789
0 ....t....r
1 ..........
2 ..ht......
3 hhfr...r.r
4 .......rrr
5 ..t..t.r..
6 ...h.tt.r.
7 f..fh.....
8 ..f..tt.r.
9 ....r.....

Turn = 6.
  0123456789
0 ....t.....
1 .h........
2 ..tt.....r
3 hrr..r..r.
4 .....r....
5 ..t..rr..r
6 ...h.tt.r.
7 f..fh.....
8 ..f..tt.r.
9 ..r.....r.

Turn = 8.
  0123456789
0 .h..t.....
1 ..........
2 ..tt......
3 rr.r..r...
4 ..rr.....r
5 ..t...t...
6 ...h.rt...
7 f..fhr..rr
8 ..f..rr..r
9 r........r

Turn = 10.
  0123456789
0 .h..t.....
1 .r........
2 ..tt......
3 .r..r.....
4 ..r.......
5 rr.r..t...
6 ...h.tr..r
7 f..frrr.rr
8 ..f.....r.
9 r....r...r

*** Darwin 10x10 ***
Turn = 0.
  0123456789
0 ..f.......
1 ff..t.....
2 .f........
3 .tthr..rr.
4 ..f.tr....
5 ...t......
6 ...h...rh.
7 ....ft....
8 fh..t...rt
9 ..h..hr...

Turn = 2.
  0123456789
0 ..f.......
1 ff..r.....
2 .f..r.....
3 .tt...r...
4 ..ttt..rh.
5 ...t...r..
6 .h...t....
7 ....ft....
8 fh..tt..r.
9 ....h..r.r

Turn = 4.
  0123456789
0 ..f.......
1 ff.r......
2 .t.r....h.
3 .tt.r.....
4 ..tttr....
5 ...t.....r
6 h....t....
7 ....tt....
8 fh..tt.r..
9 .....t..rr

Turn = 6.
  0123456789
0 ..f.....h.
1 frr.......
2 .tt.......
3 .trr......
4 ..trrr....
5 ...t......
6 h....t.r.r
7 ....tt....
8 fh..tt....
9 .....tr..r

Turn = 8.
  0123456789
0 ..f.....h.
1 rtr.......
2 .tr..r....
3 .trr......
4 ..ttt..r..
5 ...t......
6 h....t....
7 ....tt....
8 fh..tt...r
9 .....rr..r

Turn = 10.
  0123456789
0 ..f..r..h.
1 rrr.......
2 ..r.r..r..
3 .ttt......
4 ..ttt.....
5 ...t......
6 h....t....
7 ....ttr...
8 fh..tt...r
9 .....t..r.

*** Darwin 10x10 ***
Turn = 0.
  0123456789
0 .....t..fr
1 ......f...
2 .h..r....f
3 .t..r.....
4 .h.r......
5 ........h.
6 t..t..f...
7 .r..tfr..f
8 ........f.
9 ...th...h.

Turn = 2.
  0123456789
0 .....t..f.
1 ......f..r
2 .h....r..r
3 .t....r...
4 .r........
5 ......r...
6 tt.t..r...
7 r...ttr..f
8 ........f.
9 ...t..h..h

Turn = 4.
  0123456789
0 .....t..f.
1 ......f.r.
2 .t......r.
3 .t......rr
4 r.....r...
5 ....r.....
6 tt.t......
7 ....ttt..f
8 ........f.
9 r..t....hh

Turn = 6.
  0123456789
0 .....t..f.
1 ......rr..
2 rt....r.rr
3 .t........
4 ..........
5 ..r......r
6 tt.t......
7 ....ttt..f
8 ........f.
9 .r.t....hh

Turn = 8.
  0123456789
0 r....t..r.
1 ......r.r.
2 .t....rr..
3 .t........
4 .........r
5 t.........
6 tt.t.....r
7 ....ttt..r
8 ........f.
9 ..r.r...hh

Turn = 10.
  0123456789
0 r....t...r
1 .......rr.
2 .t........
3 .t........
4 ......rr..
5 t........r
6 tt.t.....r
7 ....ttt..r
8 ........f.
9 ....r.r.hh

*** Darwin 10x10 ***
Turn = 0.
  0123456789
0 ..r.......
1 .t........
2 r..t....h.
3 rr........
4 t.r..f..ht
5 ..........
6 .h......h.
7 ..rtrr..h.
8 t.tf......
9 .....r.t..

Turn = 2.
  0123456789
0 ....r.....
1 rt........
2 ..rt....hh
3 r.........
4 rr...f...t
5 ..........
6 h........h
7 r..t...r..
8 t.tt......
9 ....r.rrh.

Turn = 4.
  0123456789
0 r.r...r.h.
1 .t........
2 ...t.....h
3 ..........
4 r....f...t
5 r.........
6 rr.......h
7 t..t...r.r
8 t.tt......
9 ...r..r.h.

Turn = 6.
  0123456789
0 r..r...rr.
1 .t........
2 ...t.....h
3 ..........
4 .r...f...t
5 .r.....r..
6 r........r
7 tt.t.....r
8 t.tt......
9 .r.....rr.

Turn = 8.
  0123456789
0 r....r.r.r
1 .t........
2 ...t.....h
3 .......r..
4 ...r.f...t
5 ...r.....r
6 r.........
7 tt.t.....r
8 t.tt....r.
9 r......r..

Turn = 10.
  0123456789
0 ..r...rrr.
1 .t.....r..
2 ...t.....h
3 .........r
4 ....r....r
5 ....rr....
6 ..r.....r.
7 tt.t......
8 r.tt......
9 r.......rr

*** Darwin 10x10 ***
Turn = 0.
  0123456789
0 tft...t...
1 .f..f....t
2 ......r..r
3 .........r
4 ..rrr.....
5 h..r....r.
6 f......rt.
7 .....f.t.t
8 .....t..t.
9 .f..fr....

Turn = 2.
  0123456789
0 ttt...t...
1 .f..f.t..t
2 ...r......
3 .......r.r
4 ......r...
5 h.....r...
6 f.rr.r..t.
7 .....f.t.t
8 .....t..t.
9 .f..ft....

Turn = 4.
  0123456789
0 tttr..t...
1 .f..f.t..t
2 ..........
3 .....r....
4 ........r.
5 h...r....r
6 f..r....t.
7 .....t.t.t
8 ..rr.t..t.
9 .f..tt....

Turn = 6.
  0123456789
0 ttt.r.t...
1 .t..f.t..t
2 ..........
3 ...r......
4 .........r
5 h.r.......
6 fr......tr
7 .....t.t.r
8 .....t..t.
9 .frrtt....

Turn = 8.
  0123456789
0 ttt..r.r..
1 .t..f.t..t
2 ..........
3 .r........
4 ..........
5 rr.......r
6 rr......tt
7 ....rt.t..
8 .....t..tr
9 .rr.tt....

Turn = 10.
  0123456789
0 ttt....r.t
1 .t..f.t..t
2 ..........
3 r.........
4 ..........
5 rr..r..r..
6 r.......tt
7 .rr..t.t..
8 r....t..tt
9 ....tt....

*** Darwin 10x10 ***
Turn = 0.
  0123456789
0 .......fr.
1 ...f.frf..
2 t.......hf
3 .r.....t..
4 .t.r..t.t.
5 ..........
6 ....f....h
7 ...h......
8 r...rf....
9 tr...f....

Turn = 2.
  0123456789
0 ......rf.r
1 ...f.f.f..
2 t........f
3 .......tt.
4 rrr...t.t.
5 ..........
6 ....fr...h
7 ..........
8 ..r..r....
9 t.rr.f....

Turn = 4.
  0123456789
0 ......r.rr
1 ...f.f.f..
2 r.r......f
3 r......tt.
4 .....rt.t.
5 ..........
6 .r..f....h
7 ..........
8 ..r.r..r..
9 t...rf....

Turn = 6.
  0123456789
0 r.r.....r.
1 r..f.f.f.r
2 .....rr.r.
3 .......tt.
4 ......t.t.
5 ..........
6 ..r.f....h
7 ..........
8 .r....r..r
9 t...r.r...

Turn = 8.
  0123456789
0 .rr...r...
1 r..frr.f..
2 .......t..
3 ......rttr
4 ..r.....t.
5 ......r...
6 ....f....h
7 .........r
8 ........r.
9 tr...r..r.

Turn = 10.
  0123456789
0 r..rr.....
1 .r.r..rf..
2 ..r....t..
3 ..r....tt.
4 ........tt
5 ......r...
6 ....f....r
7 ......r..r
8 .........r
9 t..r...r.r

*** Darwin 10x10 ***
Turn = 0.
  0123456789
0 .h.......h
1 .......rf.
2 ...tf.t.f.
3 .r.h.....f
4 .h.f.r.t.h
5 ....f.....
6 .......htf
7 ..tt..r...
8 ....h.....
9 ....tf.t..

Turn = 2.
  0123456789
0 ...h...h..
1 ........rr
2 ...tf.t.f.
3 ...t.....f
4 .r.t...t.h
5 ....f.....
6 .r...r.ttf
7 ..tt......
8 ....h.....
9 ....tttt..

Turn = 4.
  0123456789
0 .....hh.r.
1 ..........
2 ...tt.t.fr
3 ...t.....r
4 ...t...t.r
5 ....f.....
6 .r.....ttf
7 .ttt......
8 ....tt....
9 ....tttt..

Turn = 6.
  0123456789
0 .....hh..r
1 ..........
2 ...tt.t.rr
3 ...t....rr
4 ...t...t..
5 ....f.....
6 .r.....ttt
7 ..rt......
8 ....tt....
9 ..r.tttt..

Turn = 8.
  0123456789
0 .....hh...
1 .........r
2 ...tt.tr.r
3 ...t..r..r
4 ...t...t..
5 ....f.....
6 ...r...ttt
7 ...r.r....
8 ....tt....
9 ...rtttt..

Turn = 10.
  0123456789
0 .....hh...
1 .........r
2 ...ttrrr..
3 ...tr.....
4 ...t...t..
5 ....f....r
6 .....r.ttt
7 .....r.r..
8 ....tt....
9 ...rtttt..

*** Darwin 10x10 ***
Turn = 0.
  0123456789
0 f........h
1 ...h....h.
2 r.t.......
3 ..hff.ft..
4 t...rrrt.r
5 .r.....f.t
6 ...f...t..
7 .....f...f
8 .h.r......
9 ...h.....f

Turn = 2.
  0123456789
0 r........h
1 r....h....
2 ..t.......
3 ...frrfth.
4 t.h...rrr.
5 ...r...r.t
6 ...f.r..r.
7 .....f...f
8 h.........
9 ...r.r...f

Turn = 4.
  0123456789
0 .r.......h
1 r...r..h..
2 ..t.......
3 ...f.rrrr.
4 t.....rrr.
5 .....rr..t
6 ..hf.....r
7 ...r.r...f
8 h.........
9 ..r....r.f

Turn = 6.
  0123456789
0 ...rr....h
1 .........h
2 ..t...r...
3 t..f..rrr.
4 t....r....
5 .....rr.rr
6 ...f.....r
7 ..r...r..f
8 h.r.......
9 r....r..rr

Turn = 8.
  0123456789
0 ...rr.r..h
1 .......r.h
2 ..t.......
3 t..fr.r...
4 t..r......
5 .......r.r
6 ...f.r....
7 r.....r.rr
8 h.......rr
9 r.r.r.r...

Turn = 10.
  0123456789
0 ...r.rrr.h
1 .........h
2 ..t.......
3 t.rrr....r
4 tr........
5 .....r....
6 ...f......
7 r.......rr
8 r....rrr.r
9 rrr..r....

*** Darwin 10x10 ***
Turn = 0.
  0123456789
0 r.t.th....
1 ..hr.t.ft.
2 ..h...t.t.
3 f..h....f.
4 f.f.......
5 ...h......
6 ....rf....
7 ..f..h...h
8 r..r..r..t
9 ..........

Turn = 2.
  0123456789
0 r.t.t..h..
1 ..r..t.ft.
2 ..r...t.t.
3 f.h..h..t.
4 f.f.......
5 .....h...h
6 .....f....
7 ..f.......
8 .r..rr...t
9 r....r....

Turn = 4.
  0123456789
0 .tt.t....h
1 r....t.tt.
2 ..r...t.t.
3 f.....t.th
4 f.r.r.....
5 .......h..
6 .....f....
7 ..f.......
8 r..r.....t
9 r...rr....

Turn = 6.
  0123456789
0 .tt.t....h
1 .....t.tth
2 rr....t.t.
3 f.....t.t.
4 f.....r...
5 .........h
6 ..r..f....
7 ..f..r....
8 rr.......t
9 .rr.......

Turn = 8.
  0123456789
0 .rt.t....h
1 .r...t.tth
2 r.....t.t.
3 r.....t.t.
4 r.....t...
5 .........h
6 r...rr....
7 ..r.r.....
8 rr.......t
9 ..r.......

Turn = 10.
  0123456789
0 .r.tt....t
1 ..r..t.ttt
2 ..r...t.t.
3 .r....t.t.
4 r....rt...
5 r........h
6 rrr.......
7 ......r...
8 .........t
9 ..r.r.....

*** Darwin 10x10 ***
Turn = 0.
  0123456789
0 ...rf..h..
1 .r.......h
2 .....f.f..
3 ..h..t...r
4 .t..f..f.r
5 .h....f...
6 .....f..f.
7 ...f.....r
8 ..hrh.....
9 ..........

Turn = 2.
  0123456789
0 .rr.f..h..
1 .......h.r
2 .....t.f.r
3 .....t....
4 .t..f..f..
5 .th...f...
6 ....hf..f.
7 ...f...r..
8 h.........
9 ...r......

Turn = 4.
  0123456789
0 ....f..h.r
1 .r...h...r
2 ..r..t.f..
3 .....t....
4 .t..f..f..
5 .t..h.f...
6 .....f..f.
7 ..hf.r....
8 h.........
9 .r........

Turn = 6.
  0123456789
0 ....f..h.r
1 ...h.....r
2 .....t.f..
3 .r...t....
4 .tr.f..f..
5 .t..h.f...
6 .....f..f.
7 ...rr.....
8 h.........
9 r.h.......

Turn = 8.
  0123456789
0 ....f..h.r
1 .h.......r
2 .....t.f..
3 .r...t....
4 ....f..f..
5 rr..h.f...
6 ..r..f..f.
7 .rr.......
8 h.........
9 r.h.......

Turn = 10.
  0123456789
0 ....f..rr.
1 h......r..
2 .....t.f..
3 ...r.t....
4 ....f..f..
5 ....h.f...
6 rr.r.f..f.
7 rr........
8 h.........
9 r.h.......

*** Darwin 10x10 ***
Turn = 0.
  0123456789
0 ...h..h.r.
1 ..f...r...
2 rt.....f..
3 r.......h.
4 ..........
5 rr..r.....
6 t..h.rr.h.
7 .t.t.....f
8 .....t...f
9 ...t....t.

Turn = 2.
  0123456789
0 ...h..h..r
1 ..f.....r.
2 tt.....f..
3 ..r......h
4 ......r...
5 .....r....
6 rrh.......
7 tt.t.r...f
8 .....t..hf
9 ...t....t.

Turn = 4.
  0123456789
0 ...h..h...
1 ..f.......
2 tt....rfrr
3 ....r....h
4 ..........
5 ..........
6 rh...r....
7 rr.t.....f
8 .....r..hf
9 .r.t.r..t.

Turn = 6.
  0123456789
0 ...h..r...
1 ..f...r...
2 tt.....f.r
3 ......r...
4 ........rr
5 ..........
6 r..r......
7 .r.t.....f
8 rr..r...tf
9 ..tt...rt.

Turn = 8.
  0123456789
0 ...h.r....
1 ..f....r.r
2 tt.....f..
3 ........r.
4 r.........
5 ..........
6 .r......rr
7 r..t.....f
8 ..tr....rt
9 r.tt...rr.

Turn = 10.
  0123456789
0 ...rr....r
1 ..f......r
2 rt.....f..
3 r........r
4 ..........
5 ..........
6 r........r
7 r..t....rr
8 ..t.....r.
9 .rrr.r.rrr

*** Darwin 10x10 ***
Turn = 0.
  0123456789
0 .....t.t..
1 .....r...r
2 .......h..
3 ....r...tf
4 .....t....
5 f.t.....rf
6 r.......h.
7 .r..t...t.
8 .tt..tf.t.
9 ..f...tt..

Turn = 2.
  0123456789
0 .....t.t..
1 ....rt....
2 ........hr
3 ........rt
4 .....t..r.
5 f.t......f
6 .........h
7 ....t...t.
8 rtt..tt.t.
9 .rf...tt..

Turn = 4.
  0123456789
0 ....rt.t..
1 .....t....
2 ........r.
3 ........rr
4 .....t..rr
5 f.t......r
6 .........h
7 ....t...t.
8 .tt..tt.t.
9 ttt...tt..

Turn = 6.
  0123456789
0 ....rr.t..
1 ......r.r.
2 .........r
3 .........r
4 .....t..r.
5 f.t......r
6 ........rr
7 ....t...t.
8 .tt..tt.t.
9 ttt...tt..

Turn = 8.
  0123456789
0 .....r.tr.
1 .......t..
2 .....r...r
3 ........r.
4 .....tr...
5 f.t......r
6 ........r.
7 ....t...t.
8 .tt..tt.tr
9 ttt...tt..

Turn = 10.
  0123456789
0 ......rtr.
1 .......t..
2 ..........
3 .....rr..r
4 .....r...r
5 f.t...r...
6 ......r...
7 ....t...t.
8 .tt..tt.t.
9 ttt...tt.r

*** Darwin 10x10 ***
Turn = 0.
  0123456789
0 t...h...r.
1 f.r.....f.
2 ..rrfr...t
3 ........r.
4 ....t.f...
5 f...hf..t.
6 ..........
7 ...h......
8 .....h..h.
9 .h..rt.fr.

Turn = 2.
  0123456789
0 t.....r...
1 rr..h...f.
2 .r..f..r.t
3 ......r...
4 ..r.t.f...
5 f..h.f..t.
6 .....h....
7 ....r.....
8 ....r...h.
9 .h...t.rr.

Turn = 4.
  0123456789
0 t...r.....
1 tt..h...fr
2 r...f...r.
3 ...hr.....
4 ....t.f...
5 f....f..t.
6 ..r..h....
7 .....r.r..
8 .....r....
9 .h...tr.h.

Turn = 6.
  0123456789
0 r.r......r
1 rt.hh...f.
2 r...f....r
3 ..r.......
4 ....t.f...
5 f....f.rt.
6 .....h....
7 .......r..
8 ..r....r..
9 .h...tt.h.

Turn = 8.
  0123456789
0 tr.h.....r
1 rr..h...fr
2 ..r.f.....
3 r......r..
4 ....t.f...
5 f....f..t.
6 .....h....
7 .........r
8 .........r
9 .hr..tt.h.

Turn = 10.
  0123456789
0 tr.h...r..
1 rr..h..rrr
2 r..rr.....
3 ..........
4 ....t.f...
5 f....f..t.
6 .....h...r
7 .........r
8 ..........
9 .rr..tt.h.

*** Darwin 10x10 ***
Turn = 0.
  0123456789
0 ...rr.t...
1 .....h.fh.
2 ..........
3 .ftt.h..rf
4 ...h......
5 ff..f.....
6 .........t
7 ..r.......
8 .f..r..h..
9 ......h...

Turn = 2.
  0123456789
0 .....r.r..
1 ...r..hf..
2 ..........
3 .ftt..r.hf
4 ...t......
5 ff..fh....
6 .........t
7 ....r.....
8 .f....r..h
9 ........h.

Turn = 4.
  0123456789
0 .......r.r
1 ......hf..
2 ...r......
3 .ttrr....f
4 ...t......
5 ff..f...h.
6 .....h...t
7 ......r...
8 .f......rh
9 .........h

Turn = 6.
  0123456789
0 ........r.
1 ......hf.r
2 ..r.r.....
3 .trr.....f
4 ...t......
5 ff..f.....
6 .........t
7 .......rr.
8 .f...h..rr
9 .........r

Turn = 8.
  0123456789
0 ....r....r
1 ..rr..hf..
2 r........r
3 .t........
4 ...t.....r
5 ff..f.....
6 .......r.t
7 .......r..
8 .f......r.
9 .....h..rr

Turn = 10.
  0123456789
0 ..rrr....r
1 r.....hf..
2 ..........
3 .t........
4 ...t...r.r
5 ff..f....r
6 .........r
7 .....r....
8 .f....r.r.
9 .....h..r.

*** Darwin 10x10 ***
Turn = 0.
  0123456789
0 .h........
1 .f..r.r...
2 ...r...r..
3 r.t.......
4 ...trhh...
5 ..h...r...
6 t........h
7 ft.r..f...
8 .......rf.
9 .r...h....

Turn = 2.
  0123456789
0 .h.r......
1 .f......r.
2 .....h..r.
3 ..t.r.....
4 ..tth.....
5 r...r.....
6 t...r..h..
7 tt...rf...
8 .....h..f.
9 ...r...r..

Turn = 4.
  0123456789
0 .h..rh....
1 .f.......r
2 .........r
3 ..t.r.....
4 ..rrr.....
5 ..r.......
6 r.r..rr...
7 tt...r....
8 ....rh..f.
9 .....r...r

Turn = 6.
  0123456789
0 .h..r.r...
1 .f......r.
2 ..........
3 ..rr......
4 ..rr..r..r
5 r...rr....
6 r..rrh....
7 .r.r......
8 ........fr
9 ....r..r..

Turn = 8.
  0123456789
0 .h......r.
1 .f....r...
2 ...rr.r...
3 ..r..r....
4 ...rrh....
5 ..rr......
6 r.r......r
7 ..r......r
8 ...rr...f.
9 ..r......r

Turn = 10.
  0123456789
0 .h.r..r..r
1 .f..rr....
2 .....h....
3 ....r.....
4 ..r..r....
5 .rrr.r....
6 ....r...r.
7 .......r..
8 r.......fr
9 r..rr.....

*** Darwin 10x10 ***
Turn = 0.
  0123456789
0 ft...ttrhh
1 h.......hf
2 t.........
3 ...h....f.
4 .rh....tr.
5 ......f...
6 r........h
7 r.rf......
8 ..r.....rh
9 ..h...f...

Turn = 2.
  0123456789
0 tt...rrr.h
1 t.....h.hf
2 tr........
3 .....h..t.
4 ....h..tt.
5 ......f...
6 r.........
7 ...r.r...h
8 .........h
9 rrr...f.r.

Turn = 4.
  0123456789
0 tt..r....h
1 tt...h...f
2 t....r.rh.
3 .......ht.
4 r.....ttt.
5 ......f...
6 ..........
7 .r...r.r.h
8 .........h
9 r..r..rr..

Turn = 6.
  0123456789
0 ttr......h
1 tt.h.....f
2 r......r..
3 r......rrr
4 .....rttt.
5 .r....f...
6 ..........
7 .......rrr
8 .........r
9 r....rrr..

Turn = 8.
  0123456789
0 ttr......h
1 rth......r
2 r....r.r.r
3 rr......t.
4 ......ttt.
5 ......t...
6 .....r.r..
7 r........r
8 ........r.
9 .....rr.rr

Turn = 10.
  0123456789
0 ttr....r.r
1 rrr....r.r
2 r.rr......
3 ..r.....t.
4 ......ttt.
5 r.....tt..
6 ..........
7 ..........
8 .....r.r.r
9 ...r...rrr

*** Darwin 10x10 ***
Turn = 0.
  0123456789
0 ..f.......
1 frf.r..rr.
2 h......f..
3 .ft...f.t.
4 f.t....r..
5 ....tr..h.
6 .h.f.r....
7 ..rt......
8 .r.....t..
9 ..........

Turn = 2.
  0123456789
0 .rf....rr.
1 f.f...r...
2 .......f..
3 hft...f.t.
4 f.t..r....
5 ....t..r..
6 ..rtr.....
7 ..rt....h.
8 ...r...t..
9 ..........

Turn = 4.
  0123456789
0 .r...r...r
1 f.r.r...r.
2 .......f..
3 htt...f.t.
4 f.tr......
5 ...rt....r
6 ..rtt.....
7 ...r......
8 .....r.tt.
9 ..........

Turn = 6.
  0123456789
0 ..rr....r.
1 f.....r..r
2 ..r....f..
3 ttr...f.t.
4 t.rr......
5 ....r.r...
6 ...tt....r
7 ....t..r..
8 ..r...r.t.
9 ..........

Turn = 8.
  0123456789
0 ..r...r...
1 f..r....r.
2 ...r...f..
3 ttt...f.tr
4 t....r....
5 ..r...rrr.
6 ...tt.....
7 ....t.....
8 .......ttr
9 ..r.......

Turn = 10.
  0123456789
0 r...r.....
1 f.r......r
2 .....r.f..
3 ttt...frt.
4 t.....r..r
5 ......r..r
6 ..ttt.....
7 ....t.....
8 .......tt.
9 r........r

*** Darwin 10x10 ***
Turn = 0.
  0123456789
0 ...t.....r
1 ...rhf..h.
2 f...h...f.
3 ........t.
4 .....fff..
5 .....hr..h
6 f.f......t
7 .....f....
8 f....t..tr
9 .....f..r.

Turn = 2.
  0123456789
0 ...t...r..
1 .....f..h.
2 f...h.h.f.
3 ...r....t.
4 .....fff..
5 ...hr..h..
6 f.f......t
7 .....t....
8 f....t.rr.
9 .....f...r

Turn = 4.
  0123456789
0 ...t.r....
1 .....f..h.
2 f......tt.
3 ........t.
4 ...rhfff..
5 .hr..h....
6 f.f......t
7 .....t....
8 f....rrr..
9 .....t...r

Turn = 6.
  0123456789
0 ...rr.....
1 .....f..h.
2 f......tt.
3 ........t.
4 .r...fff..
5 rr..h.....
6 f.f.h..r.t
7 .....tr...
8 f....r....
9 ....r....r

Turn = 8.
  0123456789
0 ..r.......
1 .....f..t.
2 f..r...tt.
3 ........t.
4 rr...ffr..
5 r.h...rr..
6 r.f......t
7 .....t....
8 f...ht....
9 ..r......r

Turn = 10.
  0123456789
0 r.........
1 .....f..t.
2 rr.....tt.
3 r.....r.t.
4 ...r.fr.r.
5 rrr...r...
6 .r.......t
7 .....t...r
8 f....t....
9 r...h.....

*** Darwin 10x10 ***
Turn = 0.
  0123456789
0 .r......ff
1 ft..t.....
2 ...r....f.
3 .....fr...
4 f.....f..t
5 ........ht
6 ....h.....
7 rh...hf.rt
8 ..f.t...r.
9 ...t.h....

Turn = 2.
  0123456789
0 .r......ff
1 rr..t.....
2 .r......f.
3 .....f..r.
4 f.....f..t
5 .h....h..t
6 .........r
7 ....hhf.r.
8 ..f.th.r..
9 r..t......

Turn = 4.
  0123456789
0 rr......ff
1 ....t.....
2 ........f.
3 rr...f...r
4 fh....f..t
5 ....h....t
6 .........t
7 ....htt...
8 ..f.ttt...
9 .r.t....r.

Turn = 6.
  0123456789
0 .r.r....ff
1 ....t....r
2 ........f.
3 rr...f....
4 ..r...f..t
5 r.h......t
6 .........t
7 ....ttt...
8 ..f.ttt...
9 ..r.r..r..

Turn = 8.
  0123456789
0 ...r.r..fr
1 ....t....r
2 r.......f.
3 ...r.f....
4 ....r.f..t
5 h........t
6 .........t
7 r...ttt...
8 ..f.ttt...
9 ....rrr...

Turn = 10.
  0123456789
0 r....r.rrr
1 ....t..r..
2 ........f.
3 ....rrr...
4 .....r...t
5 h........t
6 .........t
7 ....ttt...
8 ..f.ttt...
9 r...ttt...

*** Darwin 10x10 ***
Turn = 0.
  0123456789
0 ...f...t..
1 .t.r.t.r..
2 .t........
3 hh.r......
4 .....h....
5 ..........
6 hh......r.
7 ..f......r
8 ....hrt.t.
9 ......h...

Turn = 2.
  0123456789
0 ...f...t..
1 ht...t.t..
2 .t...r....
3 .h.rr.....
4 hh........
5 .........r
6 ....h.r...
7 ..f.......
8 ......t.t.
9 .....tt...

Turn = 4.
  0123456789
0 h..f...t..
1 .t...t.t..
2 ht...t....
3 .t....r..r
4 .h..h.....
5 ...r......
6 ....r.....
7 ..f.......
8 ......t.t.
9 .....tt...

Turn = 6.
  0123456789
0 h..f...t..
1 ht...t.t.r
2 .t..ht....
3 .t......r.
4 .t........
5 ..........
6 ..........
7 ..frr.....
8 ......t.t.
9 .....tt...

Turn = 8.
  0123456789
0 h..fh..t.r
1 ht...t.t..
2 .t...t....
3 .t.......r
4 .t........
5 ..........
6 ..........
7 ..f.......
8 ......t.t.
9 ...rrtt...

Turn = 10.
  0123456789
0 t..fh..t..
1 tt...t.t.r
2 .t...t....
3 .t........
4 .t........
5 .........r
6 ..........
7 ..f.......
8 .....rt.t.
9 ..r.r.t...

*** Darwin 10x10 ***
Turn = 0.
  0123456789
0 h..h.....r
1 rrt.....t.
2 ..t....t..
3 .t.......r
4 .......h..
5 .....r....
6 .rhff...f.
7 ......th.f
8 ..r...hrff
9 ..t.......

Turn = 2.
  0123456789
0 ..h.......
1 .r......t.
2 r.rh...t.r
3 .t.....r..
4 ..r.......
5 ......r...
6 ..hff..rf.
7 ......t.rr
8 .r..r.trrr
9 ..t.......

Turn = 4.
  0123456789
0 .r..h.....
1 ........t.
2 .......t..
3 .tt..r....
4 r..h.....r
5 ..r.....r.
6 ..rr.r..f.
7 ......tt.r
8 .....tt.rr
9 .rt....rr.

Turn = 6.
  0123456789
0 ...r..h...
1 ........t.
2 .......t..
3 .ttr......
4 ........r.
5 .rr.......
6 r..h.r.tfr
7 ......trr.
8 .....ttrr.
9 r.t.....rr

Turn = 8.
  0123456789
0 .....r..t.
1 ........t.
2 .......tr.
3 .trr......
4 ..r.......
5 r.........
6 ......rrr.
7 r.....trr.
8 r..h.ttrrr
9 ..t.....rr

Turn = 10.
  0123456789
0 .......rt.
1 .......rr.
2 .......t..
3 rttt......
4 ....r.....
5 ........r.
6 ......rr.r
7 ..r...rr..
8 ..r..tr.rr
9 ..th...rrr

*** Darwin 10x10 ***
Turn = 0.
  0123456789
0 ...t.f....
1 .......th.
2 f...hr....
3 ...h....r.
4 ..r....t.h
5 .rt.......
6 .t....r...
7 ....trt..h
8 ....t...t.
9 r.r...th..

Turn = 2.
  0123456789
0 ...t.r....
1 .....r.tr.
2 f.......r.
3 .rr.......
4 ....h..th.
5 r.t.......
6 .t......r.
7 ....ttt..h
8 .....r..t.
9 r..r..tt..

Turn = 4.
  0123456789
0 ...t..r...
1 ..r...tt.r
2 f......r..
3 r.........
4 r......tt.
5 ..t.......
6 .t..h....r
7 r...ttt..h
8 ......t.t.
9 .....rtt..

Turn = 6.
  0123456789
0 ..tt....r.
1 ......tt..
2 r....r...r
3 r.........
4 ..r....ttr
5 r.t.......
6 .t..t.....
7 ....ttt..h
8 ......t.t.
9 .....rrt..

Turn = 8.
  0123456789
0 r.tt.....r
1 ......tt..
2 ...r......
3 r........r
4 r...r..trr
5 ..t.......
6 .t..t.....
7 ....ttt..h
8 .....tt.t.
9 ......tt..

Turn = 10.
  0123456789
0 r.tt......
1 ......tt..
2 .r.......r
3 ..r....r..
4 ..r...rttt
5 ..t.......
6 .t..t.....
7 ....ttt..h
8 .....tt.t.
9 ......tt..
